BCD.vcd
$date
	Wed May 04 20:17:17 2022
$end
$version
	Icarus Verilog
$end
$timescale
	10ps
$end
$scope module BCD_tb $end
$scope module BCD_tb $end
$var wire 1 ! clk $end
$var wire 4 " data [3:0] $end
$var wire 1 # load $end
$var wire 1 $ rst_syn $end
$var wire 8 % seg_out [7:0] $end
$var wire 4 & Q_out [3:0] $end
$var reg 1 ' Q0 $end
$var reg 1 ( Q1 $end
$var reg 1 ) Q2 $end
$var reg 1 * Q3 $end
$scope module dff0 $end
$var wire 1 ' D $end
$var wire 1 ' Din $end
$var wire 1 ! clk $end
$var wire 1 # load $end
$var reg 1 + Q $end
$upscope $end
$scope module dff1 $end
$var wire 1 ( D $end
$var wire 1 ( Din $end
$var wire 1 ! clk $end
$var wire 1 # load $end
$var reg 1 , Q $end
$upscope $end
$scope module dff2 $end
$var wire 1 ) D $end
$var wire 1 ) Din $end
$var wire 1 ! clk $end
$var wire 1 # load $end
$var reg 1 - Q $end
$upscope $end
$scope module dff3 $end
$var wire 1 * D $end
$var wire 1 * Din $end
$var wire 1 ! clk $end
$var wire 1 # load $end
$var reg 1 . Q $end
$upscope $end
$scope module show_seg $end
$var wire 4 / BCD [3:0] $end
$var reg 8 0 seg [7:0] $end
$upscope $end
$upscope $end
$upscope $end
$enddefinitions $end
#0
$dumpvars
bx 0
bx /
x.
x-
x,
x+
0*
1)
0(
1'
bx &
bx %
1$
1#
b101 "
1!
$end
#5000
0#
0!
#10000
1(
0'
b10010010 %
b10010010 0
0.
1-
0,
b101 &
b101 /
1+
1!
#15000
0!
#20000
1'
b10000010 %
b10000010 0
0+
b110 &
b110 /
1,
1!
#25000
0!
#30000
b11111000 %
b11111000 0
0)
0(
0'
b111 &
b111 /
1+
1!
0$
#35000
0!
#40000
1)
1'
b11000000 %
b11000000 0
0+
0,
b0 &
b0 /
0-
1!
1$
1#
#45000
0!
#50000
1(
0'
b10010010 %
b10010010 0
1-
b101 &
b101 /
1+
1!
0#
#55000
0!
#60000
1'
b10000010 %
b10000010 0
0+
b110 &
b110 /
1,
1!
#65000
0!
#70000
1*
0)
0(
0'
b11111000 %
b11111000 0
b111 &
b111 /
1+
1!
#75000
0!
#80000
1'
b10000000 %
b10000000 0
0+
0,
0-
b1000 &
b1000 /
1.
1!
#85000
0!
#90000
b10010000 %
b10010000 0
0*
0'
b1001 &
b1001 /
1+
1!
#95000
0!
#100000
1'
b11000000 %
b11000000 0
0+
b0 &
b0 /
0.
1!
#105000
0!
#110000
1(
0'
b11111001 %
b11111001 0
b1 &
b1 /
1+
1!
#115000
0!
#120000
1'
b10100100 %
b10100100 0
0+
b10 &
b10 /
1,
1!
#125000
0!
#130000
1)
0(
0'
b10110000 %
b10110000 0
b11 &
b11 /
1+
1!
#135000
0!
#140000
1'
b10011001 %
b10011001 0
0+
0,
b100 &
b100 /
1-
1!
#145000
0!
#150000
1(
0'
b10010010 %
b10010010 0
b101 &
b101 /
1+
1!
#155000
0!
#160000
1'
b10000010 %
b10000010 0
0+
b110 &
b110 /
1,
1!
#165000
0!
#170000
1*
0)
0(
0'
b11111000 %
b11111000 0
b111 &
b111 /
1+
1!
#175000
0!
#180000
1'
b10000000 %
b10000000 0
0+
0,
0-
b1000 &
b1000 /
1.
1!
#185000
0!
#190000
b10010000 %
b10010000 0
0*
0'
b1001 &
b1001 /
1+
1!
#195000
0!
#200000
1'
b11000000 %
b11000000 0
0+
b0 &
b0 /
0.
1!
